<?xml version="1.0" encoding="utf-8"?>
<!-- Generator: Adobe Illustrator 25.0.1, SVG Export Plug-In . SVG Version: 6.00 Build 0)  -->
<svg version="1.1" id="Capa_1" xmlns="http://www.w3.org/2000/svg" xmlns:xlink="http://www.w3.org/1999/xlink" x="0px" y="0px"
	 viewBox="0 0 937 937" style="enable-background:new 0 0 937 937;" xml:space="preserve">
<style type="text/css">
	.st0{fill:url(#SVGID_1_);}
	.st1{fill:url(#SVGID_2_);}
	.st2{fill:url(#SVGID_3_);}
	.st3{fill:url(#SVGID_4_);}
	.st4{fill:url(#SVGID_5_);}
	.st5{fill:url(#SVGID_6_);}
	.st6{fill:url(#SVGID_7_);}
	.st7{fill:url(#SVGID_8_);}
	.st8{fill:url(#SVGID_9_);}
	.st9{fill:url(#SVGID_10_);}
	.st10{fill:url(#SVGID_11_);}
	.st11{fill:url(#SVGID_12_);}
</style>
<g id="surface1">
	<linearGradient id="SVGID_1_" gradientUnits="userSpaceOnUse" x1="86.5788" y1="374.8" x2="929.8788" y2="374.8">
		<stop  offset="0" style="stop-color:#273C74"/>
		<stop  offset="1" style="stop-color:#233871"/>
	</linearGradient>
	<path class="st0" d="M867.4,0H149c-34.5,0-62.5,28-62.5,62.5v374.8h31.2V62.5c0-17.3,14-31.2,31.2-31.2h718.4
		c17.3,0,31.2,14,31.2,31.2v624.7c0,17.3-14,31.2-31.2,31.2H539.5v31.2h327.9c34.5,0,62.5-28,62.5-62.5V62.5
		C929.9,28,901.9,0,867.4,0z"/>
	<linearGradient id="SVGID_2_" gradientUnits="userSpaceOnUse" x1="149.0455" y1="78.0833" x2="180.2788" y2="78.0833">
		<stop  offset="0" style="stop-color:#273C74"/>
		<stop  offset="1" style="stop-color:#233871"/>
	</linearGradient>
	<path class="st1" d="M149,62.5h31.2v31.2H149V62.5z"/>
	<linearGradient id="SVGID_3_" gradientUnits="userSpaceOnUse" x1="211.5121" y1="78.0833" x2="242.7455" y2="78.0833">
		<stop  offset="0" style="stop-color:#273C74"/>
		<stop  offset="1" style="stop-color:#233871"/>
	</linearGradient>
	<path class="st2" d="M211.5,62.5h31.2v31.2h-31.2V62.5z"/>
	<linearGradient id="SVGID_4_" gradientUnits="userSpaceOnUse" x1="273.9788" y1="78.0833" x2="305.2121" y2="78.0833">
		<stop  offset="0" style="stop-color:#273C74"/>
		<stop  offset="1" style="stop-color:#233871"/>
	</linearGradient>
	<path class="st3" d="M274,62.5h31.2v31.2H274V62.5z"/>
	<linearGradient id="SVGID_5_" gradientUnits="userSpaceOnUse" x1="149.0455" y1="140.55" x2="867.4121" y2="140.55">
		<stop  offset="0" style="stop-color:#273C74"/>
		<stop  offset="1" style="stop-color:#233871"/>
	</linearGradient>
	<path class="st4" d="M149,124.9h718.4v31.2H149V124.9z"/>
	<linearGradient id="SVGID_6_" gradientUnits="userSpaceOnUse" x1="149.0455" y1="296.7167" x2="367.6788" y2="296.7167">
		<stop  offset="0" style="stop-color:#273C74"/>
		<stop  offset="1" style="stop-color:#233871"/>
	</linearGradient>
	<path class="st5" d="M149,374.8c0,8.6,7,15.6,15.6,15.6h187.4c8.6,0,15.6-7,15.6-15.6V249.9c0-8.6-7-15.6-15.6-15.6h-71.6
		l-26.7-26.7c-2.9-2.9-6.9-4.6-11-4.6h-78.1c-8.6,0-15.6,7-15.6,15.6V374.8z M180.3,234.2h56l26.7,26.7c2.9,2.9,6.9,4.6,11,4.6h62.5
		v93.7H180.3V234.2z"/>
	<linearGradient id="SVGID_7_" gradientUnits="userSpaceOnUse" x1="398.9121" y1="296.7167" x2="617.5455" y2="296.7167">
		<stop  offset="0" style="stop-color:#273C74"/>
		<stop  offset="1" style="stop-color:#233871"/>
	</linearGradient>
	<path class="st6" d="M617.5,249.9c0-8.6-7-15.6-15.6-15.6h-71.6l-26.7-26.7c-2.9-2.9-6.9-4.6-11-4.6h-78.1c-8.6,0-15.6,7-15.6,15.6
		v156.2c0,8.6,7,15.6,15.6,15.6h187.4c8.6,0,15.6-7,15.6-15.6V249.9z M586.3,359.2H430.1V234.2h56l26.7,26.7c2.9,2.9,6.9,4.6,11,4.6
		h62.5V359.2z"/>
	<linearGradient id="SVGID_8_" gradientUnits="userSpaceOnUse" x1="648.7788" y1="296.7167" x2="867.4121" y2="296.7167">
		<stop  offset="0" style="stop-color:#273C74"/>
		<stop  offset="1" style="stop-color:#233871"/>
	</linearGradient>
	<path class="st7" d="M867.4,249.9c0-8.6-7-15.6-15.6-15.6h-71.6l-26.7-26.7c-2.9-2.9-6.9-4.6-11-4.6h-78.1c-8.6,0-15.6,7-15.6,15.6
		v156.2c0,8.6,7,15.6,15.6,15.6h187.4c8.6,0,15.6-7,15.6-15.6V249.9z M836.2,359.2H680V234.2h56l26.7,26.7c2.9,2.9,6.9,4.6,11,4.6
		h62.5V359.2z"/>
	<linearGradient id="SVGID_9_" gradientUnits="userSpaceOnUse" x1="445.7621" y1="546.5833" x2="617.5455" y2="546.5833">
		<stop  offset="0" style="stop-color:#273C74"/>
		<stop  offset="1" style="stop-color:#233871"/>
	</linearGradient>
	<path class="st8" d="M539.5,609v31.2h62.5c8.6,0,15.6-7,15.6-15.6V499.7c0-8.6-7-15.6-15.6-15.6h-71.6l-26.7-26.7
		c-2.9-2.9-6.9-4.6-11-4.6h-46.9v31.2h40.4l26.7,26.7c2.9,2.9,6.9,4.6,11,4.6h62.5V609H539.5z"/>
	<linearGradient id="SVGID_10_" gradientUnits="userSpaceOnUse" x1="648.7788" y1="546.5833" x2="867.4121" y2="546.5833">
		<stop  offset="0" style="stop-color:#273C74"/>
		<stop  offset="1" style="stop-color:#233871"/>
	</linearGradient>
	<path class="st9" d="M851.8,484.1h-71.6l-26.7-26.7c-2.9-2.9-6.9-4.6-11-4.6h-78.1c-8.6,0-15.6,7-15.6,15.6v156.2
		c0,8.6,7,15.6,15.6,15.6h187.4c8.6,0,15.6-7,15.6-15.6V499.7C867.4,491.1,860.4,484.1,851.8,484.1z M836.2,609H680V484.1h56
		l26.7,26.7c2.9,2.9,6.9,4.6,11,4.6h62.5V609z"/>
	<linearGradient id="SVGID_11_" gradientUnits="userSpaceOnUse" x1="8.4955" y1="687.1333" x2="508.2288" y2="687.1333">
		<stop  offset="0" style="stop-color:#273C74"/>
		<stop  offset="1" style="stop-color:#233871"/>
	</linearGradient>
	<path class="st10" d="M65.4,624.7H24.1c-8.6,0-15.6,7-15.6,15.6V734c0,8.6,7,15.6,15.6,15.6h41.3c3.3,10.3,7.4,20.2,12.3,29.8
		l-29.2,29.2c-6.1,6.1-6.1,16,0,22.1l66.3,66.3c6.1,6.1,16,6.1,22.1,0l29.2-29.2c9.6,4.9,19.6,9,29.8,12.3v41.3
		c0,8.6,7,15.6,15.6,15.6h93.7c8.6,0,15.6-7,15.6-15.6v-41.3c10.3-3.3,20.2-7.4,29.8-12.3l29.2,29.2c6.1,6.1,16,6.1,22.1,0
		l66.3-66.3c6.1-6.1,6.1-16,0-22.1L439,779.4c4.9-9.6,9-19.6,12.3-29.8h41.3c8.6,0,15.6-7,15.6-15.6v-93.7c0-8.6-7-15.6-15.6-15.6
		h-41.3c-3.3-10.3-7.4-20.2-12.3-29.8l29.2-29.2c6.1-6.1,6.1-16,0-22.1l-66.3-66.3c-6.1-6.1-16-6.1-22.1,0l-29.2,29.2
		c-9.6-4.9-19.6-9-29.8-12.3v-41.3c0-8.6-7-15.6-15.6-15.6h-93.7c-8.6,0-15.6,7-15.6,15.6v41.3c-10.3,3.3-20.2,7.4-29.8,12.3
		l-29.2-29.2c-6.1-6.1-16-6.1-22.1,0l-66.3,66.3c-6.1,6.1-6.1,16,0,22.1l29.2,29.2c-1.3,2.5-2.5,5.1-3.7,7.7
		C70.7,609.7,67.8,617.1,65.4,624.7z M92.2,644.2c4-15.5,10.1-30.4,18.3-44.2c3.6-6.1,2.6-13.9-2.4-19l-26.4-26.4l44.2-44.2
		l26.4,26.4c5,5,12.8,6,19,2.4c13.8-8.1,28.7-14.3,44.2-18.3c6.9-1.8,11.7-8,11.7-15.1v-37.4h62.5v37.4c0,7.1,4.8,13.3,11.7,15.1
		c15.5,4,30.4,10.1,44.2,18.3c6.1,3.6,13.9,2.6,19-2.4l26.4-26.4l44.2,44.2L408.6,581c-5,5-6,12.8-2.4,19
		c8.1,13.8,14.3,28.7,18.3,44.2c1.8,6.9,8,11.7,15.1,11.7H477v62.5h-37.4c-7.1,0-13.3,4.8-15.1,11.7c-4,15.5-10.1,30.4-18.3,44.2
		c-3.6,6.1-2.6,13.9,2.4,19l26.4,26.4l-44.2,44.2l-26.4-26.4c-5-5-12.8-6-19-2.4c-13.8,8.1-28.7,14.3-44.2,18.3
		c-6.9,1.8-11.7,8-11.7,15.1v37.4h-62.5v-37.4c0-7.1-4.8-13.3-11.7-15.1c-15.5-4-30.4-10.1-44.2-18.3c-6.1-3.6-13.9-2.6-19,2.4
		l-26.4,26.4l-44.2-44.2l26.4-26.4c5-5,6-12.8,2.4-19c-8.1-13.8-14.3-28.7-18.3-44.2c-1.8-6.9-8-11.7-15.1-11.7H39.7v-62.5h37.4
		C84.2,655.9,90.5,651.1,92.2,644.2z"/>
	<linearGradient id="SVGID_12_" gradientUnits="userSpaceOnUse" x1="149.0455" y1="687.1333" x2="367.6788" y2="687.1333">
		<stop  offset="0" style="stop-color:#273C74"/>
		<stop  offset="1" style="stop-color:#233871"/>
	</linearGradient>
	<path class="st11" d="M258.4,796.5c60.4,0,109.3-48.9,109.3-109.3c0-60.4-48.9-109.3-109.3-109.3S149,626.8,149,687.1
		C149.1,747.5,198,796.4,258.4,796.5z M258.4,609c43.1,0,78.1,35,78.1,78.1s-35,78.1-78.1,78.1s-78.1-35-78.1-78.1
		C180.3,644,215.3,609.1,258.4,609z"/>
</g>
</svg>
