<?xml version="1.0" encoding="utf-8"?>
<!-- Generator: Adobe Illustrator 24.2.3, SVG Export Plug-In . SVG Version: 6.00 Build 0)  -->
<svg version="1.1" xmlns="http://www.w3.org/2000/svg" xmlns:xlink="http://www.w3.org/1999/xlink" x="0px" y="0px"
	 viewBox="0 0 512 512" style="enable-background:new 0 0 512 512;" xml:space="preserve">
<style type="text/css">
	.st0{display:none;}
	.st1{display:inline;fill:#CCD1D9;}
	.st2{display:inline;fill:#FCD770;}
	.st3{display:inline;}
	.st4{fill:#CCD1D9;}
	.st5{display:inline;fill:#69D6F4;}
	.st6{display:inline;fill:#969FAA;}
	.st7{display:inline;fill:#838F9B;}
	.st8{display:inline;fill:#F0D0B4;}
	.st9{display:inline;fill:#B27946;}
	.st10{fill:url(#SVGID_1_);}
	.st11{fill:url(#SVGID_2_);}
	.st12{fill:url(#SVGID_3_);}
	.st13{fill:url(#SVGID_4_);}
	.st14{fill:url(#SVGID_5_);}
</style>
<g id="Layer_5" class="st0">
	<path class="st1" d="M496,96v400h-48V96c0-44.2-35.8-80-80-80h48C460.2,16,496,51.8,496,96z"/>
	<path class="st2" d="M448,96v400h-48v-32v-32v-32v-64v-48v-80.1V96c0-17.7-14.3-32-32-32h-32h-40h-56c-17.7,0-32,14.3-32,32v80
		h-30.1c-6.1,0-12.1,0.7-17.9,2.2V96c0-44.2,35.8-80,80-80h96h32C412.2,16,448,51.8,448,96z"/>
	<path class="st2" d="M208,256v32h-48v-32h24H208z"/>
	<path class="st2" d="M160,352h48v48h-48V352z"/>
	<g class="st3">
		<path class="st4" d="M264,336v64h-56v-48h24L264,336z"/>
		<path class="st4" d="M208,256h56v32h-56V256z"/>
		<path class="st4" d="M240,64h56c-17.7,0-32,14.3-32,32v81.5c-4.9-1-9.9-1.5-15-1.5h-41V96C208,78.3,222.3,64,240,64L240,64z"/>
	</g>
	<path class="st5" d="M400,96v111.9c0-3.4-0.3-6.7-1-10.2c-3.4-16.2-15.4-29.6-31-35c-1.9-0.7-4-1.3-6.1-1.7c-25-5-47.6,9.5-55.2,31
		H296l-4.9-3.3c-8.2-5.5-17.4-9.3-27.1-11.2V96c0-17.7,14.3-32,32-32h40h32C385.7,64,400,78.3,400,96z"/>
	<path class="st5" d="M400,207.9V288H264v-32h24c12,0,22.5-6.6,27.9-16.4c8.8,10.1,21.7,16.4,36.1,16.4
		C378.6,256,400,234.5,400,207.9z"/>
	<path class="st5" d="M264,336h136v64H264V336z"/>
	<path class="st6" d="M264,400h-56h-48h-16c-4.4,0-8.4,1.8-11.3,4.7c-3,2.9-4.7,6.9-4.7,11.3c0,8.8,7.2,16,16,16
		c-4.4,0-8.4,1.8-11.3,4.7c-3,2.9-4.7,6.9-4.7,11.3c0,8.8,7.2,16,16,16c-8.8,0-16,7.2-16,16c0,4.4,1.8,8.4,4.7,11.3
		c2.9,3,6.9,4.7,11.3,4.7h256v-32v-32v-32H264z"/>
	<path class="st7" d="M16,336v-32c0-8.8,7.2-16,16-16h128h48h56h136v48H264l-32,16h-24h-48H32C23.2,352,16,344.8,16,336z"/>
	<path class="st8" d="M160,256H16v-64h94.1c11.8,0,23.4-2.7,33.9-8c5.1-2.6,10.5-4.6,16-5.8c5.8-1.4,11.8-2.2,17.9-2.2H208h41
		c5,0,10.1,0.5,15,1.5c9.7,1.9,18.9,5.7,27.1,11.2l4.9,3.3h10.7c7.6-21.5,30.2-36,55.2-31c2.1,0.4,4.2,1,6.1,1.7v24.2
		c0,12.8-7.6,24.4-19.4,29.4l-37.5,16.6L311,233c1.4,2.4,3,4.6,4.9,6.6C310.5,249.4,300,256,288,256h-24h-56h-24L160,256z"/>
	<path class="st9" d="M311.1,232.9l37.5-16.6c11.8-5,19.4-16.6,19.4-29.4v-24.2c15.5,5.4,27.5,18.8,31,35c0.7,3.5,1,6.9,1,10.2
		c0,26.6-21.4,48.1-48,48.1c-14.4,0-27.3-6.3-36.1-16.4C314.1,237.6,312.4,235.4,311.1,232.9L311.1,232.9z"/>
	<path class="st3" d="M40,312h16v16H40V312z"/>
	<path class="st3" d="M72,312h16v16H72V312z"/>
	<path class="st3" d="M104,312h16v16h-16V312z"/>
	<path class="st3" d="M416,8h-48h-32h-96c-48.5,0-88,39.5-88,88v76.2c-4,1.3-7.9,2.8-11.6,4.6c-9.4,4.7-19.9,7.2-30.3,7.2H8v80h144
		v16H32c-13.2,0-24,10.8-24,24v32c0,13.2,10.8,24,24,24h120v32h-8c-13.2,0-24,10.8-24,24c0,6.2,2.4,11.7,6.2,16
		c-3.8,4.3-6.2,9.8-6.2,16s2.4,11.7,6.2,16c-3.8,4.3-6.2,9.8-6.2,16c0,13.2,10.8,24,24,24h360V96C504,47.5,464.5,8,416,8z M168,96
		c0-39.7,32.3-72,72-72h96h32c39.7,0,72,32.3,72,72v392h-32V96c0-22.1-17.9-40-40-40h-32h-40h-56c-22.1,0-40,17.9-40,40v72h-22.1
		c-3.3,0-6.6,0.2-9.9,0.6V96z M136,448c0-4.4,3.6-8,8-8h248v16H144C139.6,456,136,452.4,136,448z M233.9,360l22.1-11.1V392h-40v-32
		H233.9z M272,344h120v48H272V344z M256,264v16h-40v-16H256z M272,264h16c11,0,21.4-4.6,28.9-12.3c9.6,7.8,21.9,12.3,35.1,12.3
		c15.2,0,29.5-6.1,40-16.9V280H272V264z M256,168.3c-2.3-0.2-4.6-0.3-6.9-0.3H216V96c0-13.2,10.8-24,24-24h24.2
		c-5.1,6.7-8.2,15-8.2,24V168.3z M272,96c0-13.2,10.8-24,24-24h40h32c13.2,0,24,10.8,24,24v72.8c-7.7-7.8-17.5-13.4-28.5-15.6
		c-26-5.2-51.2,7.6-62.1,30.8h-3l-2.9-1.9c-7.3-4.9-15.2-8.5-23.5-10.8L272,96L272,96z M376,186.9v-11c7.6,5.7,13.1,14,15.1,23.4
		c2.5,12.2-0.4,24.5-8,33.9S364.1,248,352,248c-11.1,0-21.1-4.6-28.3-11.9l28.1-12.4C366.5,217.4,376,202.9,376,186.9L376,186.9z
		 M24,200h86.1c12.9,0,25.9-3.1,37.5-8.8c9.4-4.7,19.8-7.2,30.3-7.2h71.2c13.4,0,26.4,3.9,37.6,11.4l6.9,4.6h18.8l1.9-5.3
		c6.7-18.8,25.8-29.7,45.7-25.9v18.1c0,9.6-5.7,18.3-14.6,22.1l-30.6,13.5c-1-2.5-1.8-5.1-2.2-7.9l-15.8,2.7
		c1.4,8.4,4.6,16,9.2,22.6c-4.5,5.1-11,8.1-17.9,8.1h-24h-80c-4.4,0-8-3.6-8-8s3.6-8,8-8h72v-16h-72c-13.2,0-24,10.8-24,24
		c0,2.8,0.6,5.5,1.5,8H24V200z M168,264h16h16v16h-32V264z M24,336v-32c0-4.4,3.6-8,8-8h360v32H262.1l-32,16H32
		C27.6,344,24,340.4,24,336z M168,360h32v32h-32V360z M144,408h248v16H144c-4.4,0-8-3.6-8-8S139.6,408,144,408z M136,480
		c0-4.4,3.6-8,8-8h248v16H144C139.6,488,136,484.4,136,480z M488,488h-32V96c0-29.7-14.8-55.9-37.4-71.9c38.5,1.4,69.4,33,69.4,71.9
		V488z"/>
</g>
<g id="Capa_2">
	<g>
		<g>
			<linearGradient id="SVGID_1_" gradientUnits="userSpaceOnUse" x1="7" y1="253.068" x2="503" y2="253.068">
				<stop  offset="0" style="stop-color:#263C74"/>
				<stop  offset="1" style="stop-color:#233871"/>
			</linearGradient>
			<path class="st10" d="M463,77.1h-80.6c-6.2-41-59.9-72-127.4-72s-121.2,31-127.4,72H47c-22.1,0-40,17.9-40,40v312
				c0,22.1,17.9,40,40,40h33.6l-13.7,32h376.3l-13.7-32H463c22.1,0,40-17.9,40-40v-312C503,95,485.1,77.1,463,77.1z M91.1,485.1
				l9.4-22c5.1-11.9,15.7-20.6,28.4-23.4l81.7-17.5c5.3,8.7,17.9,22.9,44.4,22.9c26.5,0,39.1-14.2,44.4-22.9l81.7,17.5
				c12.7,2.7,23.3,11.4,28.4,23.4l9.4,22H91.1z M391.2,360.9c-6.8,11-15,21.1-24.2,30.2v-130c0-11.1-1.7-21.8-4.7-32h45.3
				c4.8,15.2,7.4,31.3,7.4,48c0,21.1-4.1,41.6-12.1,60.9l14.8,6.1c8.8-21.3,13.3-43.8,13.3-67.1c0-97-79-176-176-176
				s-176,79-176,176c0,52.7,23.3,101.9,64,135.5v7.7l-12.6,2.7C87.5,386.4,63,333.5,63,277.1c0-105.9,86.1-192,192-192
				s192,86.1,192,192c0,56.4-24.5,109.4-67.4,146l-12.6-2.7v-7.8c14.9-12.3,27.7-26.8,37.8-43.2L391.2,360.9z M302.8,397.1
				c15.6-11.7,26.8-28.8,30.7-48.7c6.5-1.1,12.5-3.7,17.5-7.5v76l-48-10.3v-9.5H302.8z M255,397.1c-35.3,0-64-28.7-64-64v-48h128v48
				C319,368.4,290.3,397.1,255,397.1z M287,406.3v5.2c-1.7,3.8-9.5,17.6-32,17.6c-22.3,0-30.2-13.7-32-17.5v-5.2
				c9.8,4.3,20.6,6.7,32,6.7S277.2,410.6,287,406.3z M176.5,348.4c3.9,19.8,15.1,37,30.7,48.7H207v9.5l-48,10.3v-76
				C164.1,344.7,170,347.3,176.5,348.4z M159,309.1c0-10.4,6.7-19.2,16-22.5v45.1C165.7,328.3,159,319.5,159,309.1z M335,331.6
				v-45.1c9.3,3.3,16,12.1,16,22.5S344.3,328.3,335,331.6z M335,269.9v-16.8h-16v16H191v-16h-16v16.8c-5.9,1.2-11.3,3.9-16,7.4
				v-16.2c0-52.9,43.1-96,96-96s96,43.1,96,96v16.2C346.3,273.7,340.9,271.1,335,269.9z M255,149.1c-44.6,0-83,26.2-101,64h-45.5
				c24.7-56.4,81.1-96,146.5-96s121.8,39.6,146.5,96H356C338,175.3,299.6,149.1,255,149.1z M147.7,229.1c-3,10.2-4.7,20.9-4.7,32
				v130.1c-30.7-30-48-70.7-48-114.1c0-16.7,2.6-32.8,7.4-48H147.7z M487,429.1c0,13.2-10.8,24-24,24h-40v1.4
				c-5.5-11.3-14.5-20.4-25.6-25.9c41.8-39.3,65.6-93.7,65.6-151.5c0-114.7-93.3-208-208-208s-208,93.3-208,208
				c0,57.8,23.8,112.2,65.6,151.5c-11.1,5.5-20.1,14.6-25.6,25.9v-1.4H47c-13.2,0-24-10.8-24-24v-312c0-13.2,10.8-24,24-24h96v-8
				c0-34.7,51.3-64,112-64s112,29.3,112,64v8h96c13.2,0,24,10.8,24,24V429.1z"/>
		</g>
	</g>
	<g>
		<g>
			<linearGradient id="SVGID_2_" gradientUnits="userSpaceOnUse" x1="247" y1="45.068" x2="263" y2="45.068">
				<stop  offset="0" style="stop-color:#263C74"/>
				<stop  offset="1" style="stop-color:#233871"/>
			</linearGradient>
			<rect x="247" y="37.1" class="st11" width="16" height="16"/>
		</g>
	</g>
	<g>
		<g>
			<linearGradient id="SVGID_3_" gradientUnits="userSpaceOnUse" x1="279" y1="45.068" x2="295" y2="45.068">
				<stop  offset="0" style="stop-color:#263C74"/>
				<stop  offset="1" style="stop-color:#233871"/>
			</linearGradient>
			<rect x="279" y="37.1" class="st12" width="16" height="16"/>
		</g>
	</g>
	<g>
		<g>
			<linearGradient id="SVGID_4_" gradientUnits="userSpaceOnUse" x1="215" y1="45.068" x2="231" y2="45.068">
				<stop  offset="0" style="stop-color:#263C74"/>
				<stop  offset="1" style="stop-color:#233871"/>
			</linearGradient>
			<rect x="215" y="37.1" class="st13" width="16" height="16"/>
		</g>
	</g>
	
		<linearGradient id="SVGID_5_" gradientUnits="userSpaceOnUse" x1="530" y1="9.66" x2="726" y2="205.66" gradientTransform="matrix(1 0 0 -1 0 514)">
		<stop  offset="0" style="stop-color:#263C74"/>
		<stop  offset="1" style="stop-color:#233871"/>
	</linearGradient>
	<rect x="538.5" y="299.8" class="st14" width="179" height="213"/>
</g>
</svg>
